<?xml version="1.0" encoding="utf-8"?>
<!-- Generator: Adobe Illustrator 20.1.0, SVG Export Plug-In . SVG Version: 6.00 Build 0)  -->
<svg version="1.1" id="Layer_1" xmlns="http://www.w3.org/2000/svg" xmlns:xlink="http://www.w3.org/1999/xlink" x="0px" y="0px"
	 width="30px" height="16px" viewBox="0 0 30 16" style="enable-background:new 0 0 30 16;" xml:space="preserve">
<rect width="30" height="4"/>
<rect y="6" width="30" height="4"/>
<rect y="12" width="30" height="4"/>
</svg>
